…
Data in this tutorial is in a long format. This means measures are kept
in a column called `Measure` and their values are kept in a column
called `Value`.

``` r
library(tidyverse)
library(xmrr)

my_data = read_csv("data/all_data.csv")

my_data
```

    ## # A tibble: 60 x 4
    ##    Program                 Measure         Year Value
    ##    <chr>                   <chr>          <dbl> <dbl>
    ##  1 Basket Weaving          Retention Rate  2001 0.301
    ##  2 Printing Press Operator Retention Rate  2001 0.265
    ##  3 Woodcutter              Retention Rate  2001 0.375
    ##  4 Basket Weaving          Retention Rate  2002 0.387
    ##  5 Printing Press Operator Retention Rate  2002 0.278
    ##  6 Woodcutter              Retention Rate  2002 0.210
    ##  7 Basket Weaving          Retention Rate  2003 0.281
    ##  8 Printing Press Operator Retention Rate  2003 0.296
    ##  9 Woodcutter              Retention Rate  2003 0.216
    ## 10 Basket Weaving          Retention Rate  2004 0.369
    ## # ... with 50 more rows

This long format is used to make efficient use of the `xmrr` package.

``` r
xmr_data = my_data %>% 
  group_by(Program, Measure) %>% 
  xmr2(Value)

xmr_data
```

    ## # A tibble: 60 x 10
    ##    Program Measure  Year Value Order `Central Line` `Moving Range`
    ##    <chr>   <chr>   <dbl> <dbl> <dbl>          <dbl>          <dbl>
    ##  1 Basket~ Enrolm~  2001   164     1           152.             NA
    ##  2 Basket~ Enrolm~  2002   122     2           152.             42
    ##  3 Basket~ Enrolm~  2003   177     3           152.             55
    ##  4 Basket~ Enrolm~  2004   166     4           152.             11
    ##  5 Basket~ Enrolm~  2005   130     5           152.             36
    ##  6 Basket~ Enrolm~  2006   196     6           152.             66
    ##  7 Basket~ Enrolm~  2007   174     7           152.             22
    ##  8 Basket~ Enrolm~  2008   393     8           385             219
    ##  9 Basket~ Enrolm~  2009   427     9           385              34
    ## 10 Basket~ Enrolm~  2010   335    10           385              92
    ## # ... with 50 more rows, and 3 more variables: `Average Moving
    ## #   Range` <dbl>, `Lower Natural Process Limit` <dbl>, `Upper Natural
    ## #   Process Limit` <dbl>
…
